aiohttp==3.8.4
aiosignal==1.3.1
appdirs==1.4.4
ase==3.22.1
async-timeout==4.0.2
beautifulsoup4==4.12.2
bs4==0.0.1
cairocffi==1.5.1
CairoSVG==2.5.2
cbor==1.0.0
certifi==2023.11.17
charset-normalizer==2.0.12
chest==0.2.3
click==8.1.7
contextlib2==21.6.0
contourpy==1.0.7
cssselect2==0.7.0
cwl-eval==1.0.12
cycler==0.12.1
decorator==5.1.1
defusedxml==0.7.1
Deprecated==1.2.14
dill==0.3.8
docker-pycreds==0.4.0
fonttools==4.39.4
frozenlist==1.3.3
gitdb==4.0.11
GitPython==3.1.41
googledrivedownloader==0.4
h5py==3.10.0
HeapDict==1.0.1
idna==3.6
ijson==3.2.3
importlib-metadata==7.0.1
importlib-resources==5.12.0
inscriptis==2.4.0.1
intervaltree==3.1.0
ir-datasets==0.5.5
ir-measures==0.3.3
isodate==0.6.1
Jinja2==3.1.2
joblib==1.3.2
kiwisolver==1.4.5
llvmlite==0.41.1
lxml==5.0.0
lz4==4.3.3
MarkupSafe==2.1.3
matchpy==0.5.5
matplotlib==3.7.4
more-itertools==10.2.0
mpmath==1.2.1
mr4mp==2.7.1
multidict==6.0.4
multiset==2.1.1
networkx==2.5
nptyping==1.4.4
numba==0.58.1
numpy==1.24.4
opensearch-py==2.2.0
packaging==23.2
pandas==2.0.3
parts==1.7.0
patsy==0.5.6
pillow==10.2.0
protobuf==4.25.2
psutil==5.9.8
py4j==0.10.9.2
pyautocorpus==0.1.12
pyjnius==1.6.1
pyparsing==3.1.1
PyPDF2==3.0.1
pyspark==3.2.0
python-dateutil==2.8.2
python-louvain==0.16
python-terrier==0.10.0
pytrec-eval-terrier==0.5.6
pytz==2023.3.post1
PyYAML==6.0.1
rdflib==7.0.0
requests==2.31.0
Rtree==1.0.0
schema==0.7.5
scikit-learn==1.3.2
scipy==1.10.1
seaborn==0.12.2
sentry-sdk==1.39.2
setproctitle==1.3.3
Shapely==1.8.0
six==1.16.0
smmap==5.0.1
soupsieve==2.5
statsmodels==0.14.1
svgelements==1.6.8
svglib==1.2.1
svgutils==0.3.4
svgwrite==1.4.1
threadpoolctl==3.2.0
tinycss2==1.2.1
tomli==2.0.1
torch==1.7.1+cu110
torch-geometric==1.6.3
torch-scatter==2.0.6
torch-sparse==0.6.8
tqdm==4.66.1
trec-car-tools==2.6
typing_extensions==4.9.0
typish==1.9.3
tzdata==2023.4
unlzw3==0.2.2
wandb==0.16.2
warc3-wet==0.2.3
warc3-wet-clueweb09==0.2.5
wget==3.2
wrapt==1.16.0
yarl==1.9.2
zipp==3.17.0
zlib-state==0.1.6
